^C:\USERS\300034240\SOURCE\REPOS\LABEXERCISE3\LABEXERCISE3\DEBUG\MAIN.OBJ
C:\USERS\300034240\SOURCE\REPOS\LABEXERCISE3\DEBUG\LABEXERCISE3.EXE
C:\USERS\300034240\SOURCE\REPOS\LABEXERCISE3\DEBUG\LABEXERCISE3.ILK
C:\USERS\300034240\SOURCE\REPOS\LABEXERCISE3\DEBUG\LABEXERCISE3.PDB
